[
    {
        "id": 0,
        "filename": "819bf72c-caaa-4b6b-9ad9-6c9fffe0d7da.jpg",
        "result": {
            "original": "data/images\\819bf72c-caaa-4b6b-9ad9-6c9fffe0d7da.jpg",
            "processed": "data/processed_images\\819bf72c-caaa-4b6b-9ad9-6c9fffe0d7da.jpg",
            "galaxies_detected": 2
        }
    },
    {
        "id": 1,
        "filename": "90a092bf-2209-44cf-871a-a4fa2001cec1.jpg",
        "result": {
            "original": "data/images\\90a092bf-2209-44cf-871a-a4fa2001cec1.jpg",
            "processed": "data/processed_images\\90a092bf-2209-44cf-871a-a4fa2001cec1.jpg",
            "galaxies_detected": 0,
            "galaxy_types": []
        }
    },
    {
        "id": 2,
        "filename": "74111504-4d4a-4b5e-a2d7-d746af17c34f.jpg",
        "result": {
            "original": "data/images\\74111504-4d4a-4b5e-a2d7-d746af17c34f.jpg",
            "processed": "data/processed_images\\74111504-4d4a-4b5e-a2d7-d746af17c34f.jpg",
            "galaxies_detected": 0,
            "galaxy_types": []
        }
    },
    {
        "id": 3,
        "filename": "9d693f2d-5a80-4885-9553-4c1960d040c4.jpg",
        "result": {
            "galaxies_detected": 0,
            "galaxy_types": [],
            "original": "data/images\\9d693f2d-5a80-4885-9553-4c1960d040c4.jpg",
            "processed": "data/processed_images\\9d693f2d-5a80-4885-9553-4c1960d040c4.jpg"
        }
    },
    {
        "id": 4,
        "filename": "5115329c-f64b-41aa-82bf-607b9f98793b.jpg",
        "result": {
            "original": "data/images\\5115329c-f64b-41aa-82bf-607b9f98793b.jpg",
            "processed": "data/processed_images\\5115329c-f64b-41aa-82bf-607b9f98793b.jpg"
        },
        "galaxy_type": "Elliptical"
    },
    {
        "id": 5,
        "filename": "3da46d5b-d935-4281-a657-f51dd5610391.jpg",
        "result": {
            "original": "data/images\\3da46d5b-d935-4281-a657-f51dd5610391.jpg",
            "processed": "data/processed_images\\3da46d5b-d935-4281-a657-f51dd5610391.jpg"
        },
        "galaxy_type": "Spiral"
    },
    {
        "id": 6,
        "filename": "2c956536-a9b1-486a-be47-9d11153d344d.jpg",
        "result": {
            "original": "data/images\\2c956536-a9b1-486a-be47-9d11153d344d.jpg",
            "processed": "data/processed_images\\2c956536-a9b1-486a-be47-9d11153d344d.jpg"
        },
        "galaxy_type": "Spiral"
    },
    {
        "id": 7,
        "filename": "1b525190-aca0-480b-85f3-5742fa3e5c8b.jpg",
        "result": {
            "original": "data/images\\1b525190-aca0-480b-85f3-5742fa3e5c8b.jpg",
            "processed": "data/processed_images\\1b525190-aca0-480b-85f3-5742fa3e5c8b.jpg"
        },
        "galaxy_type": "Spiral"
    },
    {
        "id": 8,
        "filename": "be93a400-84ce-4080-9cb3-7460709d899a.jpg",
        "result": {
            "original": "data/images\\be93a400-84ce-4080-9cb3-7460709d899a.jpg",
            "processed": "data/processed_images\\be93a400-84ce-4080-9cb3-7460709d899a.jpg"
        }
    },
    {
        "id": 9,
        "filename": "abca1b87-e641-49e8-b609-dcf3c3c304b0.jpg",
        "result": {
            "original": "data/images\\abca1b87-e641-49e8-b609-dcf3c3c304b0.jpg",
            "processed": "data/processed_images\\abca1b87-e641-49e8-b609-dcf3c3c304b0.jpg"
        }
    },
    {
        "id": 10,
        "filename": "57c62d11-9b62-4b89-8d9f-1bbb52c6d049.jpg",
        "result": {
            "original": "data/images\\57c62d11-9b62-4b89-8d9f-1bbb52c6d049.jpg",
            "processed": "data/processed_images\\57c62d11-9b62-4b89-8d9f-1bbb52c6d049.jpg"
        }
    },
    {
        "id": 11,
        "filename": "20819dec-1062-47ea-9b94-152cd59fb1ce.jpg",
        "result": {
            "original": "data/images\\20819dec-1062-47ea-9b94-152cd59fb1ce.jpg",
            "processed": "data/processed_images\\20819dec-1062-47ea-9b94-152cd59fb1ce.jpg"
        },
        "galaxy_type": "Spiral"
    },
    {
        "id": 12,
        "filename": "05f18449-c351-49db-865d-fa54c7b28097.jpg",
        "result": {
            "original": "data/images\\05f18449-c351-49db-865d-fa54c7b28097.jpg",
            "processed": "data/processed_images\\05f18449-c351-49db-865d-fa54c7b28097.jpg"
        },
        "galaxy_type": "Spiral"
    },
    {
        "id": 13,
        "filename": "61aa1cbe-6948-4da8-9904-eefb8c71f5ce.jpg",
        "result": {
            "original": "data/images\\61aa1cbe-6948-4da8-9904-eefb8c71f5ce.jpg",
            "processed": "data/processed_images\\61aa1cbe-6948-4da8-9904-eefb8c71f5ce.jpg"
        },
        "galaxy_type": "Spiral"
    },
    {
        "id": 14,
        "filename": "11c21334-6a00-440c-bd06-0d93d4068554.jpg",
        "result": {
            "original": "data/images\\11c21334-6a00-440c-bd06-0d93d4068554.jpg",
            "processed": "data/processed_images\\11c21334-6a00-440c-bd06-0d93d4068554.jpg"
        },
        "galaxy_type": "Spiral"
    },
    {
        "id": 15,
        "filename": "89ce627b-bf27-4578-8dc4-8e33ebec9fbd.jpg",
        "result": {
            "original": "data/images\\89ce627b-bf27-4578-8dc4-8e33ebec9fbd.jpg",
            "processed": "data/processed_images\\89ce627b-bf27-4578-8dc4-8e33ebec9fbd.jpg"
        },
        "galaxy_type": "Spiral"
    },
    {
        "id": 16,
        "filename": "29458274-1c9c-4b9a-8353-04948b85b0a5.jpg",
        "result": {
            "original": "data/images\\29458274-1c9c-4b9a-8353-04948b85b0a5.jpg",
            "processed": "data/processed_images\\29458274-1c9c-4b9a-8353-04948b85b0a5.jpg"
        },
        "galaxy_type": "Spiral"
    },
    {
        "id": 17,
        "filename": "fcf34096-d60a-42ac-a8f4-752d681d7ef4.jpg",
        "result": {
            "original": "data/images\\fcf34096-d60a-42ac-a8f4-752d681d7ef4.jpg",
            "processed": "data/processed_images\\fcf34096-d60a-42ac-a8f4-752d681d7ef4.jpg"
        },
        "galaxy_type": "Spiral"
    },
    {
        "id": 18,
        "filename": "2d828d23-b74b-4265-aacc-810449d82ea5.jpg",
        "result": {
            "original": "data/images\\2d828d23-b74b-4265-aacc-810449d82ea5.jpg",
            "processed": "data/processed_images\\2d828d23-b74b-4265-aacc-810449d82ea5.jpg"
        },
        "galaxy_type": "Spiral"
    },
    {
        "id": 19,
        "filename": "2dbece48-528d-44b0-b6db-14e7ee710052.jpg",
        "result": {
            "original": "data/images\\2dbece48-528d-44b0-b6db-14e7ee710052.jpg",
            "processed": "data/processed_images\\2dbece48-528d-44b0-b6db-14e7ee710052.jpg"
        },
        "galaxy_type": "Spiral"
    },
    {
        "id": 20,
        "filename": "da59c81e-5150-4a97-be7d-c383794683ff.jpg",
        "result": {
            "original": "data/images\\da59c81e-5150-4a97-be7d-c383794683ff.jpg",
            "processed": "data/processed_images\\da59c81e-5150-4a97-be7d-c383794683ff.jpg",
            "classification": "Spiral"
        }
    },
    {
        "id": 21,
        "filename": "0f4e6121-9166-46bf-8944-5e75b726d644.jpg",
        "result": {
            "original": "data/images\\0f4e6121-9166-46bf-8944-5e75b726d644.jpg",
            "processed": "data/processed_images\\0f4e6121-9166-46bf-8944-5e75b726d644.jpg",
            "classification": "Spiral"
        }
    },
    {
        "id": 22,
        "filename": "12edf9c8-c41e-41b0-9f8d-686d9c23c725.jpg",
        "result": {
            "processed": "data/processed_images\\12edf9c8-c41e-41b0-9f8d-686d9c23c725.jpg",
            "classification": "Spiral"
        }
    },
    {
        "id": 23,
        "filename": "93680ca6-7710-4665-ba36-214f6ccbbb8e.jpg",
        "result": {
            "processed": "data/processed_images\\93680ca6-7710-4665-ba36-214f6ccbbb8e.jpg",
            "classification": "Elliptical"
        }
    },
    {
        "id": 24,
        "filename": "aa0a24af-cb22-4af3-a028-f836961edde6.jpg",
        "result": {
            "processed": "data/processed_images\\aa0a24af-cb22-4af3-a028-f836961edde6.jpg",
            "classification": "Spiral"
        }
    },
    {
        "id": 25,
        "filename": "3b4df412-cb3a-42ac-8858-37db307babf5.jpg",
        "result": {
            "processed": "data/processed_images\\3b4df412-cb3a-42ac-8858-37db307babf5.jpg",
            "classification": "Elliptical"
        }
    },
    {
        "id": 26,
        "filename": "c0f618a1-b8dc-4b1d-90ad-4494c2f9d35e.jpg",
        "result": {
            "processed": "c0f618a1-b8dc-4b1d-90ad-4494c2f9d35e.jpg",
            "classification": "Spiral"
        }
    },
    {
        "id": 27,
        "filename": "948affa0-d2b7-41f9-ae9f-ac188ab73fd3.jpg",
        "result": {
            "processed": "948affa0-d2b7-41f9-ae9f-ac188ab73fd3.jpg",
            "classification": "Spiral"
        }
    },
    {
        "id": 28,
        "filename": "5752fe56-7349-423d-a34f-3336b9008aef.jpg",
        "result": {
            "processed": "5752fe56-7349-423d-a34f-3336b9008aef.jpg",
            "classification": "Spiral"
        }
    },
    {
        "id": 29,
        "filename": "f1385ee2-64b4-43fa-a3c7-ff0f40a3d2d6.jpg",
        "result": {
            "processed": "f1385ee2-64b4-43fa-a3c7-ff0f40a3d2d6.jpg",
            "classification": "Elliptical"
        }
    }
]